{
    "name": "IngamePlayerActions",
    "maps": [
        {
            "name": "Player0",
            "id": "36e5778f-0c21-4646-88dd-b2b97c9e293e",
            "actions": [
                {
                    "name": "Fire",
                    "id": "f8be05ed-d383-4573-bdb7-65e7c6d13255",
                    "expectedControlLayout": "Button",
                    "continuous": false,
                    "passThrough": false,
                    "initialStateCheck": false,
                    "processors": "",
                    "interactions": "",
                    "bindings": []
                }
            ],
            "bindings": [
                {
                    "name": "",
                    "id": "c6fe78f6-4edf-4a9f-8d72-3fd64ad39c91",
                    "path": "<Keyboard>/leftCtrl",
                    "interactions": "",
                    "processors": "",
                    "groups": "",
                    "action": "Fire",
                    "isComposite": false,
                    "isPartOfComposite": false,
                    "modifiers": ""
                },
                {
                    "name": "",
                    "id": "9c1cee47-5d0e-499d-9e3d-a96ffe0cc175",
                    "path": "<Gamepad>/rightShoulder",
                    "interactions": "",
                    "processors": "",
                    "groups": "",
                    "action": "Fire",
                    "isComposite": false,
                    "isPartOfComposite": false,
                    "modifiers": ""
                }
            ]
        },
        {
            "name": "MainMenu",
            "id": "018f7755-71ae-4f19-82c9-eba5001a9b1f",
            "actions": [
                {
                    "name": "StartGame",
                    "id": "193dc011-2a02-4ee0-9f25-8a7b94b3794a",
                    "expectedControlLayout": "Button",
                    "continuous": false,
                    "passThrough": false,
                    "initialStateCheck": false,
                    "processors": "",
                    "interactions": "",
                    "bindings": []
                }
            ],
            "bindings": [
                {
                    "name": "",
                    "id": "4ebb5e11-7248-4ab9-b7bc-1e41b89bd639",
                    "path": "<Gamepad>/start",
                    "interactions": "",
                    "processors": "",
                    "groups": "",
                    "action": "StartGame",
                    "isComposite": false,
                    "isPartOfComposite": false,
                    "modifiers": ""
                },
                {
                    "name": "",
                    "id": "ee859e2a-f922-403d-a966-dc96b661103e",
                    "path": "<Keyboard>/space",
                    "interactions": "",
                    "processors": "",
                    "groups": "",
                    "action": "StartGame",
                    "isComposite": false,
                    "isPartOfComposite": false,
                    "modifiers": ""
                },
                {
                    "name": "",
                    "id": "b8b1f71e-05d8-495e-9394-3f05c15db151",
                    "path": "<Keyboard>/enter",
                    "interactions": "",
                    "processors": "",
                    "groups": "",
                    "action": "StartGame",
                    "isComposite": false,
                    "isPartOfComposite": false,
                    "modifiers": ""
                }
            ]
        }
    ],
    "controlSchemes": []
}